<svg xmlns="http://www.w3.org/2000/svg" xmlns:xlink="http://www.w3.org/1999/xlink" version="1.1" baseProfile="basic" x="0px" y="0px" viewBox="0 0 100 100" xml:space="preserve"><style type="text/css">
	.st0{fill:#231F20;}
</style><path fill="red" d="M76.25,20h-22.5v7.5h-7.5V20h-22.5v7.5h-7.5V50h7.5v7.5h7.5V65h7.5v7.5h7.5V80h7.5v-7.5h7.5V65h7.5v-7.5h7.5V50h7.5V27.5  h-7.5V20z M38.75,35h-7.5v7.5h-7.5V35h7.5v-7.5h7.5V35z"/></svg>
